email,first_name,last_name,display_name,username,billing_first_name,billing_last_name,billing_company,billing_address_1,billing_address_2,billing_city,billing_postcode,billing_country,billing_state,billing_email,billing_phone,shipping_first_name,shipping_last_name,shipping_company,shipping_address_1,shipping_address_2,shipping_city,shipping_postcode,shipping_country,shipping_state,is_paying_customer
harry.potter@gmail.com,Harry,Potter,,,Harry,Potter,,4 Privet Drive,Surrey,Atlanta,35067,United States,Georgia,harry.potter@gmail.com,,,,,,,,,,,Yes
hermionee.granger@gmail.com,Hermionee,Granger,,,Harry,Potter,,Hampstead Garden Suburb,,Norcross,36058,United States,Georgia,,,,,,,,,,,,
